<svg width="562" height="483" viewBox="0 0 562 483" fill="none" xmlns="http://www.w3.org/2000/svg">
<g filter="url(#filter0_f_339_472)">
<path d="M6.67555 362.264C92.512 169.18 286.026 37.3722 331.827 8.16015C337.263 4.69666 344.419 5.87554 348.641 10.9066C512.182 206.1 548.397 398.577 555.395 449.459C556.361 456.501 551.717 463.009 544.917 464.221C262.986 514.262 59.6288 407.473 12.2258 379.341C6.3967 375.879 3.91418 368.482 6.67555 362.264Z" stroke="#F26C21" stroke-opacity="0.55"/>
</g>
<defs>
<filter id="filter0_f_339_472" x="0.0488281" y="0.677734" width="560.972" height="482.206" filterUnits="userSpaceOnUse" color-interpolation-filters="sRGB">
<feFlood flood-opacity="0" result="BackgroundImageFix"/>
<feBlend mode="normal" in="SourceGraphic" in2="BackgroundImageFix" result="shape"/>
<feGaussianBlur stdDeviation="2.5" result="effect1_foregroundBlur_339_472"/>
</filter>
</defs>
</svg>
